simulation/modelsim/msim_transcript
# Reading D:/quartus/modelsim_ase/tcl/vsim/pref.tcl
# do thunderbird_run_msim_rtl_verilog.do
# if {[file exists rtl_work]} {
# 	vdel -lib rtl_work -all
# }
# vlib rtl_work
# vmap work rtl_work
# Model Technology ModelSim - Intel FPGA Edition vmap 10.5b Lib Mapping Utility 2016.10 Oct  5 2016
# vmap work rtl_work 
# Copying D:/quartus/modelsim_ase/win32aloem/../modelsim.ini to modelsim.ini
# Modifying modelsim.ini
# 
# vlog -vlog01compat -work work +incdir+D:/quartus/laboratory_activities/lab9 {D:/quartus/laboratory_activities/lab9/clk_div.v}
# Model Technology ModelSim - Intel FPGA Edition vlog 10.5b Compiler 2016.10 Oct  5 2016
# Start time: 13:39:27 on Dec 12,2024
# vlog -reportprogress 300 -vlog01compat -work work "+incdir+D:/quartus/laboratory_activities/lab9" D:/quartus/laboratory_activities/lab9/clk_div.v 
# -- Compiling module clk_div
# 
# Top level modules:
# 	clk_div
# End time: 13:39:28 on Dec 12,2024, Elapsed time: 0:00:01
# Errors: 0, Warnings: 0
# vlog -vlog01compat -work work +incdir+D:/quartus/laboratory_activities/lab9 {D:/quartus/laboratory_activities/lab9/thunderbird.v}
# Model Technology ModelSim - Intel FPGA Edition vlog 10.5b Compiler 2016.10 Oct  5 2016
# Start time: 13:39:28 on Dec 12,2024
# vlog -reportprogress 300 -vlog01compat -work work "+incdir+D:/quartus/laboratory_activities/lab9" D:/quartus/laboratory_activities/lab9/thunderbird.v 
# -- Compiling module thunderbird
# 
# Top level modules:
# 	thunderbird
# End time: 13:39:28 on Dec 12,2024, Elapsed time: 0:00:00
# Errors: 0, Warnings: 0
# vlog -vlog01compat -work work +incdir+D:/quartus/laboratory_activities/lab9 {D:/quartus/laboratory_activities/lab9/thunderbird_wrapper.v}
# Model Technology ModelSim - Intel FPGA Edition vlog 10.5b Compiler 2016.10 Oct  5 2016
# Start time: 13:39:28 on Dec 12,2024
# vlog -reportprogress 300 -vlog01compat -work work "+incdir+D:/quartus/laboratory_activities/lab9" D:/quartus/laboratory_activities/lab9/thunderbird_wrapper.v 
# -- Compiling module thunderbird_wrapper
# 
# Top level modules:
# 	thunderbird_wrapper
# End time: 13:39:28 on Dec 12,2024, Elapsed time: 0:00:00
# Errors: 0, Warnings: 0
# 
vlog -reportprogress 300 -work work D:/quartus/laboratory_activities/lab9/thunderbird_tb.v
# Model Technology ModelSim - Intel FPGA Edition vlog 10.5b Compiler 2016.10 Oct  5 2016
# Start time: 13:39:59 on Dec 12,2024
# vlog -reportprogress 300 -work work D:/quartus/laboratory_activities/lab9/thunderbird_tb.v 
# -- Compiling module thunderbird_tb
# 
# Top level modules:
# 	thunderbird_tb
# End time: 13:39:59 on Dec 12,2024, Elapsed time: 0:00:00
# Errors: 0, Warnings: 0
vlog -reportprogress 300 -work work D:/quartus/laboratory_activities/lab9/thunderbird.v
# Model Technology ModelSim - Intel FPGA Edition vlog 10.5b Compiler 2016.10 Oct  5 2016
# Start time: 13:40:05 on Dec 12,2024
# vlog -reportprogress 300 -work work D:/quartus/laboratory_activities/lab9/thunderbird.v 
# -- Compiling module thunderbird
# 
# Top level modules:
# 	thunderbird
# End time: 13:40:06 on Dec 12,2024, Elapsed time: 0:00:01
# Errors: 0, Warnings: 0
vlog -reportprogress 300 -work work D:/quartus/laboratory_activities/lab9/thunderbird_tb.v
# Model Technology ModelSim - Intel FPGA Edition vlog 10.5b Compiler 2016.10 Oct  5 2016
# Start time: 13:40:06 on Dec 12,2024
# vlog -reportprogress 300 -work work D:/quartus/laboratory_activities/lab9/thunderbird_tb.v 
# -- Compiling module thunderbird_tb
# 
# Top level modules:
# 	thunderbird_tb
# End time: 13:40:06 on Dec 12,2024, Elapsed time: 0:00:00
# Errors: 0, Warnings: 0
vsim -gui -l msim_transcript work.thunderbird_tb
# vsim -gui -l msim_transcript work.thunderbird_tb 
# Start time: 13:40:16 on Dec 12,2024
# Loading work.thunderbird_tb
# Loading work.thunderbird
add wave -position insertpoint sim:/thunderbird_tb/*
run
# Testing left press...
# At time                    0, L = 000, R = 000, left = 1, right = 0
# At time                    5, L = 100, R = 000, left = 1, right = 0
# At time                   15, L = 110, R = 000, left = 1, right = 0
# At time                   25, L = 111, R = 000, left = 1, right = 0
# At time                   35, L = 000, R = 000, left = 1, right = 0
# At time                   45, L = 100, R = 000, left = 1, right = 0
# At time                   50, L = 100, R = 000, left = 0, right = 0
# At time                   55, L = 110, R = 000, left = 0, right = 0
# At time                   65, L = 111, R = 000, left = 0, right = 0
# At time                   75, L = 000, R = 000, left = 0, right = 0
# Testing right press...
# At time                   90, L = 000, R = 000, left = 0, right = 1
# At time                   95, L = 000, R = 100, left = 0, right = 1
run -all
# At time                  105, L = 000, R = 110, left = 0, right = 1
# At time                  115, L = 000, R = 111, left = 0, right = 1
# At time                  125, L = 000, R = 000, left = 0, right = 1
# At time                  135, L = 000, R = 100, left = 0, right = 1
# At time                  145, L = 000, R = 110, left = 0, right = 1
# At time                  155, L = 000, R = 111, left = 0, right = 1
# At time                  165, L = 000, R = 000, left = 0, right = 1
# At time                  175, L = 000, R = 100, left = 0, right = 1
# At time                  185, L = 000, R = 110, left = 0, right = 1
# Testing both left and right press...
# At time                  190, L = 000, R = 110, left = 1, right = 1
# At time                  195, L = 000, R = 111, left = 1, right = 1
# At time                  205, L = 000, R = 000, left = 1, right = 1
# At time                  215, L = 111, R = 111, left = 1, right = 1
# At time                  225, L = 000, R = 000, left = 1, right = 1
# At time                  235, L = 111, R = 111, left = 1, right = 1
# At time                  245, L = 000, R = 000, left = 1, right = 1
# At time                  255, L = 111, R = 111, left = 1, right = 1
# At time                  265, L = 000, R = 000, left = 1, right = 1
# At time                  275, L = 111, R = 111, left = 1, right = 1
# At time                  285, L = 000, R = 000, left = 1, right = 1
# At time                  295, L = 111, R = 111, left = 1, right = 1
# At time                  305, L = 000, R = 000, left = 1, right = 1
# At time                  315, L = 111, R = 111, left = 1, right = 1
# At time                  325, L = 000, R = 000, left = 1, right = 1
# At time                  335, L = 111, R = 111, left = 1, right = 1
# Applying reset...
# At time                  340, L = 000, R = 000, left = 1, right = 1
# At time                  385, L = 111, R = 111, left = 1, right = 1
# At time                  395, L = 000, R = 000, left = 1, right = 1
# At time                  405, L = 111, R = 111, left = 1, right = 1
# At time                  410, L = 111, R = 111, left = 1, right = 0
# At time                  415, L = 000, R = 000, left = 1, right = 0
# At time                  425, L = 100, R = 000, left = 1, right = 0
# At time                  435, L = 110, R = 000, left = 1, right = 0
# At time                  445, L = 111, R = 000, left = 1, right = 0
# At time                  455, L = 000, R = 000, left = 1, right = 0
# At time                  465, L = 100, R = 000, left = 1, right = 0
# ** Note: $finish    : D:/quartus/laboratory_activities/lab9/thunderbird_tb.v(68)
#    Time: 470 ps  Iteration: 0  Instance: /thunderbird_tb
# 1
# Break in Module thunderbird_tb at D:/quartus/laboratory_activities/lab9/thunderbird_tb.v line 68
# End time: 15:41:00 on Dec 12,2024, Elapsed time: 2:00:44
# Errors: 0, Warnings: 0
