simulation/modelsim/thunderbird_tb.vcd
$date
	Thu Dec 12 13:40:23 2024
$end
$version
	ModelSim Version 10.5b
$end
$timescale
	1ps
$end

$scope module thunderbird_tb $end
$var reg 1 ! clk $end
$var reg 1 " reset $end
$var reg 1 # left $end
$var reg 1 $ right $end
$var wire 1 % L [2] $end
$var wire 1 & L [1] $end
$var wire 1 ' L [0] $end
$var wire 1 ( R [2] $end
$var wire 1 ) R [1] $end
$var wire 1 * R [0] $end

$scope module uut $end
$var parameter 3 + Off $end
$var parameter 3 , L1 $end
$var parameter 3 - L2 $end
$var parameter 3 . L3 $end
$var parameter 3 / R1 $end
$var parameter 3 0 R2 $end
$var parameter 3 1 R3 $end
$var parameter 3 2 LR $end
$var wire 1 3 Clk $end
$var wire 1 4 reset $end
$var wire 1 5 left $end
$var wire 1 6 right $end
$var reg 3 7 L [2:0] $end
$var reg 3 8 R [2:0] $end
$var reg 3 9 state_p [2:0] $end
$var reg 3 : state_n [2:0] $end
$var wire 1 ; in_sequence $end
$upscope $end
$upscope $end
$enddefinitions $end
#0
$dumpvars
0!
0"
1#
0$
b0 7
b0 8
b0 9
b1 :
b0 +
b1 ,
b10 -
b11 .
b100 /
b101 0
b110 1
b111 2
0'
0&
0%
0*
0)
0(
z;
06
15
04
03
$end
#5
1!
13
b1 9
b10 :
b100 7
1%
#10
0!
03
#15
1!
13
b10 9
b11 :
b110 7
1&
#20
0!
03
#25
1!
13
b11 9
b0 :
b111 7
1'
#30
0!
03
#35
1!
13
b0 9
b1 :
b0 7
0'
0&
0%
#40
0!
03
#45
1!
13
b1 9
b10 :
b100 7
1%
#50
0#
0!
05
03
#55
1!
13
b10 9
b11 :
b110 7
1&
#60
0!
03
#65
1!
13
b11 9
b0 :
b111 7
1'
#70
0!
03
#75
1!
13
b0 9
b0 7
0'
0&
0%
#80
0!
03
#85
1!
13
#90
1$
0!
16
03
b100 :
#95
1!
13
b100 9
b101 :
b100 8
1(
#100
0!
03
#105
1!
13
b101 9
b110 :
b110 8
1)
#110
0!
03
#115
1!
13
b110 9
b0 :
b111 8
1*
#120
0!
03
#125
1!
13
b0 9
b100 :
b0 8
0*
0)
0(
#130
0!
03
#135
1!
13
b100 9
b101 :
b100 8
1(
#140
0!
03
#145
1!
13
b101 9
b110 :
b110 8
1)
#150
0!
03
#155
1!
13
b110 9
b0 :
b111 8
1*
#160
0!
03
#165
1!
13
b0 9
b100 :
b0 8
0*
0)
0(
#170
0!
03
#175
1!
13
b100 9
b101 :
b100 8
1(
#180
0!
03
#185
1!
13
b101 9
b110 :
b110 8
1)
#190
1#
0!
15
03
#195
1!
13
b110 9
b0 :
b111 8
1*
#200
0!
03
#205
1!
13
b0 9
b111 :
b0 8
0*
0)
0(
#210
0!
03
#215
1!
13
b111 9
b0 :
b111 8
b111 7
1'
1&
1%
1*
1)
1(
#220
0!
03
#225
1!
13
b0 9
b111 :
b0 8
b0 7
0'
0&
0%
0*
0)
0(
#230
0!
03
#235
1!
13
b111 9
b0 :
b111 8
b111 7
1'
1&
1%
1*
1)
1(
#240
0!
03
#245
1!
13
b0 9
b111 :
b0 8
b0 7
0'
0&
0%
0*
0)
0(
#250
0!
03
#255
1!
13
b111 9
b0 :
b111 8
b111 7
1'
1&
1%
1*
1)
1(
#260
0!
03
#265
1!
13
b0 9
b111 :
b0 8
b0 7
0'
0&
0%
0*
0)
0(
#270
0!
03
#275
1!
13
b111 9
b0 :
b111 8
b111 7
1'
1&
1%
1*
1)
1(
#280
0!
03
#285
1!
13
b0 9
b111 :
b0 8
b0 7
0'
0&
0%
0*
0)
0(
#290
0!
03
#295
1!
13
b111 9
b0 :
b111 8
b111 7
1'
1&
1%
1*
1)
1(
#300
0!
03
#305
1!
13
b0 9
b111 :
b0 8
b0 7
0'
0&
0%
0*
0)
0(
#310
0!
03
#315
1!
13
b111 9
b0 :
b111 8
b111 7
1'
1&
1%
1*
1)
1(
#320
0!
03
#325
1!
13
b0 9
b111 :
b0 8
b0 7
0'
0&
0%
0*
0)
0(
#330
0!
03
#335
1!
13
b111 9
b0 :
b111 8
b111 7
1'
1&
1%
1*
1)
1(
#340
1"
0!
14
03
b0 9
b111 :
b0 8
b0 7
0'
0&
0%
0*
0)
0(
#345
1!
13
#350
0!
03
#355
1!
13
#360
0!
03
#365
1!
13
#370
0!
03
#375
1!
13
#380
0"
0!
04
03
#385
1!
13
b111 9
b0 :
b111 8
b111 7
1'
1&
1%
1*
1)
1(
#390
0!
03
#395
1!
13
b0 9
b111 :
b0 8
b0 7
0'
0&
0%
0*
0)
0(
#400
0!
03
#405
1!
13
b111 9
b0 :
b111 8
b111 7
1'
1&
1%
1*
1)
1(
#410
0$
0!
06
03
#415
1!
13
b0 9
b1 :
b0 8
b0 7
0'
0&
0%
0*
0)
0(
#420
0!
03
#425
1!
13
b1 9
b10 :
b100 7
1%
#430
0!
03
#435
1!
13
b10 9
b11 :
b110 7
1&
#440
0!
03
#445
1!
13
b11 9
b0 :
b111 7
1'
#450
0!
03
#455
1!
13
b0 9
b1 :
b0 7
0'
0&
0%
#460
0!
03
#465
1!
13
b1 9
b10 :
b100 7
1%
